{
    "name": "modbox",
    "title": "ModBox",
    "description": "<p>Displays a modifier box to modify roll results</p>",
    "version": "1.0.4",
    "author": "U~man",
    "scripts": [],
    "esmodules": [
      "module/modbox.js"
    ],
    "styles": [
      "styles/modbox.css"
    ],
    "packs": [],
    "languages": [
      {
        "lang": "en",
        "name": "English",
        "path": "lang/en.json"
      },
      {
        "lang": "fr",
        "name": "French (FRANCE)",
        "path": "lang/fr.json"
      },
      {
        "lang": "es",
        "name": "Español",
        "path": "lang/es.json"
      }
    ],
    "url": "https://gitlab.com/mesfoliesludiques/foundryvtt-modbox",
    "manifest": "https://gitlab.com/mesfoliesludiques/foundryvtt-modbox/-/raw/master/module.json",
    "download": "https://gitlab.com/mesfoliesludiques/foundryvtt-modbox/-/archive/master/foundryvtt-modbox-master.zip",
    "minimumCoreVersion": "0.7.5",
    "compatibleCoreVersion": "0.7.7"
  }